Lab_0_Introduction/mytest.vcd
$date
	Sun Mar 14 22:45:19 2021
$end
$version
	Icarus Verilog
$end
$timescale
	1ps
$end
$scope module testbench $end
$var wire 1 ! sum $end
$var wire 1 " c_out $end
$var reg 1 # a $end
$var reg 8 $ ans_carry [7:0] $end
$var reg 8 % ans_sum [7:0] $end
$var reg 1 & b $end
$var reg 1 ' cin $end
$var reg 1 ( clk $end
$var reg 1 ) correct $end
$var reg 8 * counter [7:0] $end
$scope module FAD $end
$var wire 1 ' Carry_in $end
$var wire 1 " Carry_out $end
$var wire 1 # In_A $end
$var wire 1 & In_B $end
$var wire 1 + w3 $end
$var wire 1 , w2 $end
$var wire 1 - w1 $end
$var wire 1 ! Sum $end
$scope module HAD $end
$var wire 1 , Carry_out $end
$var wire 1 # In_A $end
$var wire 1 & In_B $end
$var wire 1 - Sum $end
$upscope $end
$scope module HAD2 $end
$var wire 1 + Carry_out $end
$var wire 1 - In_A $end
$var wire 1 ' In_B $end
$var wire 1 ! Sum $end
$upscope $end
$upscope $end
$upscope $end
$enddefinitions $end
#0
$dumpvars
x-
x,
x+
b1000 *
1)
0(
x'
x&
b1101001 %
b10111 $
x#
x"
x!
$end
#5000000000000
b111 *
1(
#10000000000000
0"
0!
0+
0-
0,
0(
0'
0&
0#
#15000000000000
b110 *
1(
#20000000000000
1!
1-
0(
1&
#25000000000000
b101 *
1(
#30000000000000
0(
0&
1#
#35000000000000
b100 *
1(
#40000000000000
0!
1"
0-
1,
0(
1&
#45000000000000
b11 *
1(
#50000000000000
0"
1!
0,
0(
1'
0&
0#
#55000000000000
b10 *
1(
#60000000000000
1"
0!
1+
1-
0(
1&
#65000000000000
b1 *
1(
#70000000000000
0(
0&
1#
#75000000000000
b0 *
1(
#80000000000000
1!
0+
0-
1,
0(
1&
#85000000000000
0)
1(
