Lab_5_Advanced_Pipeline_CPU/code/test.vcd
$date
	Tue Jun 22 21:38:39 2021
$end
$version
	Icarus Verilog
$end
$timescale
	1ps
$end
$scope module TestBench $end
$var reg 1 ! CLK $end
$var reg 1 " RST $end
$var integer 32 # count [31:0] $end
$var integer 32 $ i [31:0] $end
$scope module cpu $end
$var wire 1 % PCSrc $end
$var wire 1 ! clk_i $end
$var wire 1 " rst_i $end
$var wire 1 & zero_in_MEM $end
$var wire 1 ' zero_in_EX $end
$var wire 5 ( shamt [4:0] $end
$var wire 5 ) rt_addr_in_EX [4:0] $end
$var wire 5 * rt_addr [4:0] $end
$var wire 2 + rtForward [1:0] $end
$var wire 5 , rs_addr_in_EX [4:0] $end
$var wire 5 - rs_addr [4:0] $end
$var wire 2 . rsForward [1:0] $end
$var wire 32 / result_WB [31:0] $end
$var wire 5 0 reg_in_WB [4:0] $end
$var wire 5 1 reg_in_MEM [4:0] $end
$var wire 5 2 reg_in_EX [4:0] $end
$var wire 5 3 rd_addr_in_EX [4:0] $end
$var wire 5 4 rd_addr [4:0] $end
$var wire 6 5 opcode [5:0] $end
$var wire 32 6 next_PC [31:0] $end
$var wire 32 7 instr_in_IF [31:0] $end
$var wire 6 8 funcode [5:0] $end
$var wire 2 9 WB_in_MEM [1:0] $end
$var wire 2 : WB_in_ID [1:0] $end
$var wire 2 ; WB_in_EX [1:0] $end
$var wire 32 < Shift_Left_2 [31:0] $end
$var wire 32 = S_Extend_in_EX [31:0] $end
$var wire 32 > S_Extend [31:0] $end
$var wire 1 ? RegWrite $end
$var wire 1 @ RegDst $end
$var wire 32 A Readdata_in_WB [31:0] $end
$var wire 32 B Readdata_in_MEM [31:0] $end
$var wire 32 C RT_data_in_MEM [31:0] $end
$var wire 32 D RT_data_in_EX [31:0] $end
$var wire 32 E RT_data [31:0] $end
$var wire 32 F RT_MUX [31:0] $end
$var wire 32 G RS_data_in_EX [31:0] $end
$var wire 32 H RS_data [31:0] $end
$var wire 32 I RS_MUX [31:0] $end
$var wire 32 J PC_addr_in_MEM [31:0] $end
$var wire 32 K PC_addr_in_ID [31:0] $end
$var wire 32 L PC_addr_in_EX [31:0] $end
$var wire 32 M PC_addr_added [31:0] $end
$var wire 32 N PC_addr_4 [31:0] $end
$var wire 32 O PC_addr [31:0] $end
$var wire 1 P PCWrite $end
$var wire 1 Q MemtoReg $end
$var wire 1 R MemWrite $end
$var wire 1 S MemRead $end
$var wire 32 T MUX_ALU [31:0] $end
$var wire 3 U MEM_in_ID [2:0] $end
$var wire 3 V MEM_in_EX [2:0] $end
$var wire 1 W IFIDWrite $end
$var wire 1 X IFFlush $end
$var wire 1 Y IDFlush $end
$var wire 10 Z IDEX_ctrl [9:0] $end
$var wire 5 [ EX_in_ID [4:0] $end
$var wire 5 \ EXMEM_ctrl [4:0] $end
$var wire 1 ] EXFlush $end
$var wire 1 ^ Branch $end
$var wire 32 _ ALU_Result_in_WB [31:0] $end
$var wire 32 ` ALU_Result_in_MEM [31:0] $end
$var wire 32 a ALU_Result_in_EX [31:0] $end
$var wire 4 b ALU_Ctrl [3:0] $end
$var wire 1 c ALUSrc $end
$var wire 3 d ALUOp [2:0] $end
$scope module ALU $end
$var wire 1 ' zero_o $end
$var wire 32 e src2_i [31:0] $end
$var wire 32 f src1_i [31:0] $end
$var wire 4 g ctrl_i [3:0] $end
$var reg 32 h result_o [31:0] $end
$upscope $end
$scope module ALU_Control $end
$var wire 3 i ALUOp_i [2:0] $end
$var wire 6 j funct_i [5:0] $end
$var reg 4 k ALUCtrl_o [3:0] $end
$var reg 1 l jr_i $end
$upscope $end
$scope module Add_pc $end
$var wire 32 m src2_i [31:0] $end
$var wire 32 n sum_o [31:0] $end
$var wire 32 o src1_i [31:0] $end
$upscope $end
$scope module Add_pc_branch $end
$var wire 32 p src1_i [31:0] $end
$var wire 32 q sum_o [31:0] $end
$var wire 32 r src2_i [31:0] $end
$upscope $end
$scope module Control $end
$var wire 6 s instr_op_i [5:0] $end
$var reg 1 t ALUSrc_o $end
$var reg 3 u ALU_op_o [2:0] $end
$var reg 1 v Branch_o $end
$var reg 1 w Jump_o $end
$var reg 1 x MemRead_o $end
$var reg 1 y MemWrite_o $end
$var reg 1 z MemtoReg_o $end
$var reg 1 { RegDst_o $end
$var reg 1 | RegWrite_o $end
$var reg 1 } jal_o $end
$upscope $end
$scope module DM $end
$var wire 1 S MemRead_i $end
$var wire 1 R MemWrite_i $end
$var wire 32 ~ addr_i [31:0] $end
$var wire 1 ! clk_i $end
$var wire 32 !" data_i [31:0] $end
$var reg 32 "" data_o [31:0] $end
$upscope $end
$scope module EXMEM_Flush_ctrl $end
$var wire 5 #" data0_i [4:0] $end
$var wire 5 $" data1_i [4:0] $end
$var wire 1 ] select_i $end
$var reg 5 %" data_o [4:0] $end
$upscope $end
$scope module EX_MEM $end
$var wire 1 ! clk_i $end
$var wire 107 &" data_i [106:0] $end
$var wire 1 '" enb_write $end
$var wire 1 " rst_i $end
$var reg 107 (" data_o [106:0] $end
$upscope $end
$scope module FU $end
$var wire 2 )" EXMEM_WB [1:0] $end
$var wire 5 *" EXMEM_rd [4:0] $end
$var wire 5 +" IDEX_rs [4:0] $end
$var wire 5 ," IDEX_rt [4:0] $end
$var wire 2 -" MEMWB_WB [1:0] $end
$var wire 5 ." MEMWB_rd [4:0] $end
$var reg 2 /" rsForward [1:0] $end
$var reg 2 0" rtForward [1:0] $end
$upscope $end
$scope module HDU $end
$var wire 5 1" IDEX_rt [4:0] $end
$var wire 5 2" IFID_rs [4:0] $end
$var wire 5 3" IFID_rt [4:0] $end
$var wire 3 4" MEM [2:0] $end
$var wire 1 % PCSrc $end
$var reg 1 ] EXFlush $end
$var reg 1 Y IDFlush $end
$var reg 1 X IFFlush $end
$var reg 1 W IFIDWrite $end
$var reg 1 P PCWrite $end
$upscope $end
$scope module IDEX_Flush_ctrl $end
$var wire 10 5" data0_i [9:0] $end
$var wire 10 6" data1_i [9:0] $end
$var wire 1 Y select_i $end
$var reg 10 7" data_o [9:0] $end
$upscope $end
$scope module ID_EX $end
$var wire 1 ! clk_i $end
$var wire 153 8" data_i [152:0] $end
$var wire 1 9" enb_write $end
$var wire 1 " rst_i $end
$var reg 153 :" data_o [152:0] $end
$upscope $end
$scope module IF_ID $end
$var wire 1 ! clk_i $end
$var wire 64 ;" data_i [63:0] $end
$var wire 1 W enb_write $end
$var wire 1 <" rst_i $end
$var reg 64 =" data_o [63:0] $end
$upscope $end
$scope module IM $end
$var wire 32 >" instr_o [31:0] $end
$var wire 32 ?" addr_i [31:0] $end
$upscope $end
$scope module MEM_WB $end
$var wire 1 ! clk_i $end
$var wire 71 @" data_i [70:0] $end
$var wire 1 A" enb_write $end
$var wire 1 " rst_i $end
$var reg 71 B" data_o [70:0] $end
$upscope $end
$scope module Mux0 $end
$var wire 32 C" data0_i [31:0] $end
$var wire 32 D" data1_i [31:0] $end
$var wire 1 % select_i $end
$var reg 32 E" data_o [31:0] $end
$upscope $end
$scope module Mux1 $end
$var wire 32 F" data1_i [31:0] $end
$var wire 1 c select_i $end
$var wire 32 G" data0_i [31:0] $end
$var reg 32 H" data_o [31:0] $end
$upscope $end
$scope module Mux2 $end
$var wire 5 I" data0_i [4:0] $end
$var wire 5 J" data1_i [4:0] $end
$var wire 1 @ select_i $end
$var reg 5 K" data_o [4:0] $end
$upscope $end
$scope module Mux3 $end
$var wire 32 L" data0_i [31:0] $end
$var wire 32 M" data1_i [31:0] $end
$var wire 1 Q select_i $end
$var reg 32 N" data_o [31:0] $end
$upscope $end
$scope module PC $end
$var wire 1 P PCWrite_i $end
$var wire 1 ! clk_i $end
$var wire 32 O" pc_in_i [31:0] $end
$var wire 1 " rst_i $end
$var reg 32 P" pc_out_o [31:0] $end
$upscope $end
$scope module RF $end
$var wire 5 Q" RDaddr_i [4:0] $end
$var wire 32 R" RDdata_i [31:0] $end
$var wire 5 S" RSaddr_i [4:0] $end
$var wire 32 T" RSdata_o [31:0] $end
$var wire 5 U" RTaddr_i [4:0] $end
$var wire 32 V" RTdata_o [31:0] $end
$var wire 1 ? RegWrite_i $end
$var wire 1 ! clk_i $end
$var wire 1 " rst_i $end
$upscope $end
$scope module Shifter $end
$var wire 32 W" data_i [31:0] $end
$var wire 32 X" data_o [31:0] $end
$upscope $end
$scope module Sign_Extend $end
$var wire 16 Y" data_i [15:0] $end
$var reg 32 Z" data_o [31:0] $end
$upscope $end
$scope module rsMux $end
$var wire 32 [" data0_i [31:0] $end
$var wire 32 \" data1_i [31:0] $end
$var wire 32 ]" data2_i [31:0] $end
$var wire 2 ^" select_i [1:0] $end
$var reg 32 _" data_o [31:0] $end
$upscope $end
$scope module rtMux $end
$var wire 32 `" data0_i [31:0] $end
$var wire 32 a" data1_i [31:0] $end
$var wire 32 b" data2_i [31:0] $end
$var wire 2 c" select_i [1:0] $end
$var reg 32 d" data_o [31:0] $end
$upscope $end
$upscope $end
$upscope $end
$enddefinitions $end
#0
$dumpvars
bx d"
bx c"
bx b"
bx a"
bx `"
bx _"
bx ^"
bx ]"
bx \"
bx ["
bx Z"
bx Y"
bx00 X"
bx W"
bx V"
bx U"
bx T"
bx S"
bx R"
bx Q"
bx P"
bx O"
bx N"
bx M"
bx L"
bx K"
bx J"
bx I"
bx H"
bx G"
bx F"
bx E"
bx D"
bx C"
bx B"
1A"
bx @"
bx ?"
bx >"
bx ="
0<"
bx ;"
bx :"
19"
bx 8"
bx 7"
b0 6"
bx 5"
bx 4"
bx 3"
bx 2"
bx 1"
bx 0"
bx /"
bx ."
bx -"
bx ,"
bx +"
bx *"
bx )"
bx ("
1'"
bx &"
bx %"
b0 $"
bx #"
bx ""
bx !"
bx ~
x}
x|
x{
xz
xy
xx
xw
xv
bx u
xt
bx s
bx00 r
bx q
bx p
bx o
bx n
b100 m
xl
bx k
bx j
bx i
bx h
bx g
bx f
bx e
bx d
xc
bx b
bx a
bx `
bx _
x^
x]
bx \
bx [
bx Z
xY
xX
xW
bx V
bx U
bx T
xS
xR
xQ
xP
bx O
bx N
bx M
bx L
bx K
bx J
bx I
bx H
bx G
bx F
bx E
bx D
bx C
bx B
bx A
x@
x?
bx >
bx =
bx00 <
bx ;
bx :
bx 9
bx 8
bx 7
bx 6
bx 5
bx 4
bx 3
bx 2
bx 1
bx 0
bx /
bx .
bx -
bx ,
bx +
bx *
bx )
bx (
x'
x&
x%
b10000000 $
b0 #
0"
0!
$end
#5000
b1000010000 Z
b1000010000 7"
1'
b0 a
b0 h
b0 T
b0 e
b0 H"
0}
0z
0y
0x
0w
b0 U
0v
1{
b10000 [
0t
b0 u
b1000010000 5"
b10 :
1|
b0 2
b0 K"
1W
1P
0]
0Y
0X
b0 \
b0 %"
b0 I
b0 f
b0 _"
b0 F
b0 G"
b0 d"
b0 /
b0 N"
b0 R"
b0 ]"
b0 b"
b100 6
b100 E"
b100 O"
b0 >
b0 Z"
b0 8
b0 (
b0 Y"
b0 4
b0 E
b0 V"
b0 *
b0 3"
b0 U"
b0 H
b0 T"
b0 -
b0 2"
b0 S"
b0 5
b0 s
b0 j
b1000000000000000000000000000000000000000000000000000000000000000000000 &"
b0 M
b0 q
b0 <
b0 r
b0 X"
0c
b0 d
b0 i
0@
b0 B
b0 ""
0%
0R
0S
0^
0Q
b0 -"
0?
b100001000000000000000000000000000000000000000000000000000000000000000000000000000000000000000000000000000000000000000000000000000000000000000000000000000 8"
b0 K
b0 3
b0 J"
b0 )
b0 ,"
b0 1"
b0 I"
b0 ,
b0 +"
b0 =
b0 F"
b0 W"
b0 D
b0 `"
b0 G
b0 ["
b0 L
b0 p
b0 V
b0 4"
b0 #"
b0 ;
b0 1
b0 *"
b0 C
b0 !"
b0 `
b0 ~
b0 \"
b0 a"
0&
b0 J
b0 D"
b0 @"
b0 9
b0 )"
b0 0
b0 ."
b0 Q"
b0 _
b0 L"
b0 A
b0 M"
b100000000000010000000000010000 7
b100000000000010000000000010000 >"
b10000100000000000010000000000010000 ;"
b100 N
b100 n
b100 C"
b0 O
b0 o
b0 ?"
b0 P"
b0 ="
b0 :"
b0 ("
b0 B"
b1 #
1!
#10000
1<"
0!
1"
#15000
b1000000101 Z
b1000000101 7"
0{
b1000000101 5"
b101 [
1t
b10 u
b10000000000000000000000000000000000001000000000000000000000000000000000000000000000000000000000000000000000 &"
b10000 \
b10000 %"
b1000 6
b1000 E"
b1000 O"
b10000 >
b10000 Z"
1@
b10000 Y"
b10000 8
b1 *
b1 3"
b1 U"
b1000 5
b1000 s
1&
b10000 #"
b10 ;
b100000010100000000000000000000000000000100000000000000000000000000000000000000000000000000000000000000000000000000000000000000000000010000000000000100000 8"
b100 K
b1000000000000000000000000000000000000000000000000000000000000000000000 ("
b100001000000000000000000000000000000000000000000000000000000000000000000000000000000000000000000000000000000000000000000000000000000000000000000000000000 :"
b10000100000000000010000000000010000 ="
b1000010001000000011000 7
b1000010001000000011000 >"
b100000000000001000010001000000011000 ;"
b1000 N
b1000 n
b1000 C"
b100 O
b100 o
b100 ?"
b100 P"
b10 #
1!
#20000
0!
#25000
b1000010000 Z
b1000010000 7"
0'
b10000 a
b10000 h
1{
b1000010000 5"
b10000 [
0t
b0 u
0l
b10 b
b10 g
b10 k
b1 2
b1 K"
b10000 T
b10000 e
b10000 H"
b0 +
b0 0"
b0 c"
b1100 6
b1100 E"
b1100 O"
b1000000011000 >
b1000000011000 Z"
b11000 8
b1000000011000 Y"
b10 4
b1 -
b1 2"
b1 S"
b0 5
b0 s
b10000 j
b1000000 <
b1000000 r
b1000000 X"
1c
b10 d
b10 i
0@
b100001000000000000000000000000000000001000000000000000000000000000000000000000000000000000000000000000000000000000000000000001000000011000000010000100010 8"
b1000 K
b1 )
b1 ,"
b1 1"
b1 I"
b10000 =
b10000 F"
b10000 W"
b10000000000000000000000000000010001000000000000000000000000000000100000000000000000000000000000000000000001 &"
b1000100 M
b1000100 q
b100 L
b100 p
b10000000000000000000000000000000000000000000000000000000000000000000000 @"
b10 9
b10 )"
b100000000000110000000000001000 7
b100000000000110000000000001000 >"
b110000100000000000110000000000001000 ;"
b1100 N
b1100 n
b1100 C"
b1000 O
b1000 o
b1000 ?"
b1000 P"
b100000000000001000010001000000011000 ="
b100000010100000000000000000000000000000100000000000000000000000000000000000000000000000000000000000000000000000000000000000000000000010000000000000100000 :"
b10000000000000000000000000000000000001000000000000000000000000000000000000000000000000000000000000000000000 ("
b11 #
1!
#30000
0!
#35000
b1000000101 Z
b1000000101 7"
b10000 F
b10000 G"
b10000 d"
b10000 I
b10000 f
b10000 _"
0'
b100000000 a
b100000000 h
b1111 b
b1111 g
b1111 k
0{
b1000000101 5"
b101 [
1t
b10 u
b10 2
b10 K"
b1 +
b1 0"
b1 c"
b1 .
b1 /"
b1 ^"
b10000 T
b10000 e
b10000 H"
b10000 6
b10000 E"
b10000 O"
b1000 >
b1000 Z"
b10 -"
1?
b11000 j
b100000001100000 <
b100000001100000 r
b100000001100000 X"
0c
b0 d
b0 i
1@
b1000 8
b1000 Y"
b0 4
b11 *
b11 3"
b11 U"
b0 -
b0 2"
b0 S"
b1000 5
b1000 s
b1 1
b1 *"
b10000000000000000000000000000000000000000000000000000000000001000000001 @"
b10000 `
b10000 ~
b10000 \"
b10000 a"
0&
b1000100 J
b1000100 D"
b10 3
b10 J"
b1 ,
b1 +"
b1000000011000 =
b1000000011000 F"
b1000000011000 W"
b10000000000000000000001000000011010000000000000000000000000001000000000000000000000000000000000001000000010 &"
b100000001101000 M
b100000001101000 q
b1000 L
b1000 p
b100000010100000000000000000000000000001100000000000000000000000000000000000000000000000000000000000000000000000000000000000000000000001000000000001100000 8"
b1100 K
b10000000000000000000000000000000000000000000000000000000000000000000000 B"
b10000000000000000000000000000010001000000000000000000000000000000100000000000000000000000000000000000000001 ("
b100001000000000000000000000000000000001000000000000000000000000000000000000000000000000000000000000000000000000000000000000001000000011000000010000100010 :"
b110000100000000000110000000000001000 ="
b10101100000000010000000000000100 7
b10101100000000010000000000000100 >"
b1000010101100000000010000000000000100 ;"
b10000 N
b10000 n
b10000 C"
b1100 O
b1100 o
b1100 ?"
b1100 P"
b100 #
1!
#40000
0!
#45000
b101111 Z
b101111 7"
b1000 a
b1000 h
b1111 [
b1 U
1y
b111 u
b101111 5"
b0 :
0|
b10 b
b10 g
b10 k
b11 2
b11 K"
b1000 T
b1000 e
b1000 H"
b0 I
b0 f
b0 _"
b0 F
b0 G"
b0 d"
b0 +
b0 0"
b0 c"
b0 .
b0 /"
b0 ^"
b10000 /
b10000 N"
b10000 R"
b10000 ]"
b10000 b"
b10100 6
b10100 E"
b10100 O"
b100 >
b100 Z"
b100 Y"
b100 8
b1 *
b1 3"
b1 U"
b101011 5
b101011 s
b1000 j
b100000 <
b100000 r
b100000 X"
1c
b10 d
b10 i
0@
b10111100000000000000000000000000010000000000000000000000000000000000000000000000000000000000000000000000000000000000000000000000000100000000000100000 8"
b10000 K
b0 3
b0 J"
b11 )
b11 ,"
b11 1"
b11 I"
b0 ,
b0 +"
b1000 =
b1000 F"
b1000 W"
b10000000000000000000000000000001011000000000000000000000000000000010000000000000000000000000000000000000011 &"
b101100 M
b101100 q
b1100 L
b1100 p
b10 1
b10 *"
b10000 C
b10000 !"
b10000000000000000000000000000000000000000000000000000000010000000000010 @"
b100000000 `
b100000000 ~
b100000000 \"
b100000000 a"
b100000001101000 J
b100000001101000 D"
b1 0
b1 ."
b1 Q"
b10000 _
b10000 L"
b10001100000001000000000000000100 7
b10001100000001000000000000000100 >"
b1010010001100000001000000000000000100 ;"
b10100 N
b10100 n
b10100 C"
b10000 O
b10000 o
b10000 ?"
b10000 P"
b1000010101100000000010000000000000100 ="
b100000010100000000000000000000000000001100000000000000000000000000000000000000000000000000000000000000000000000000000000000000000000001000000000001100000 :"
b10000000000000000000001000000011010000000000000000000000000001000000000000000000000000000000000001000000010 ("
b10000000000000000000000000000000000000000000000000000000000001000000001 B"
b101 #
1!
#50000
b10111100000000000000000000000000010000000000000000000000000000000000000000000000000000000000000001000000000000000000000000000000000100000000000100000 8"
b10000 E
b10000 V"
0!
#55000
b1101001111 Z
b1101001111 7"
b100 a
b100 h
1z
0y
b10 U
1x
b1101001111 5"
b11 :
1|
b100000000 /
b100000000 N"
b100000000 R"
b100000000 ]"
b100000000 b"
b1 2
b1 K"
b100 T
b100 e
b100 H"
b10000 F
b10000 G"
b10000 d"
b1 \
b1 %"
b11000 6
b11000 E"
b11000 O"
b100 j
b10000 <
b10000 r
b10000 X"
b111 d
b111 i
b0 E
b0 V"
b100 *
b100 3"
b100 U"
b100011 5
b100011 s
b10 0
b10 ."
b10 Q"
b100000000 _
b100000000 L"
b11 1
b11 *"
b0 C
b0 !"
b10000000000000000000000000000000000000000000000000000000000000100000011 @"
b1000 `
b1000 ~
b1000 \"
b1000 a"
b101100 J
b101100 D"
b1 )
b1 ,"
b1 1"
b1 I"
b100 =
b100 F"
b100 W"
b10000 D
b10000 `"
b1000000000000000000000000001000000000000000000000000000000000001000000000000000000000000000001000000001 &"
b100000 M
b100000 q
b10000 L
b10000 p
b1 V
b1 4"
b1 #"
b0 ;
b110100111100000000000000000000000000010100000000000000000000000000000000000000000000000000000000000000000000000000000000000000000000000100000000010000000 8"
b10100 K
b10000000000000000000000000000000000000000000000000000000010000000000010 B"
b10000000000000000000000000000001011000000000000000000000000000000010000000000000000000000000000000000000011 ("
b10111100000000000000000000000000010000000000000000000000000000000000000000000000000000000000000001000000000000000000000000000000000100000000000100000 :"
b1010010001100000001000000000000000100 ="
b100000110010100000100010 7
b100000110010100000100010 >"
b1100000000000100000110010100000100010 ;"
b11000 N
b11000 n
b11000 C"
b10100 O
b10100 o
b10100 ?"
b10100 P"
b110 #
1!
#60000
0!
#65000
b1000010000 Z
b1000010000 7"
b10 :
0z
b0 U
0x
1{
b1000010000 5"
b10000 [
0t
b0 u
b100 2
b100 K"
0W
0P
b11010 \
b11010 %"
b0 F
b0 G"
b0 d"
b1000 /
b1000 N"
b1000 R"
b1000 ]"
b1000 b"
b11100 6
b11100 E"
b11100 O"
b10100000100010 >
b10100000100010 Z"
b100010 8
b10100000100010 Y"
b101 4
b11 *
b11 3"
b11 U"
b100 -
b100 2"
b100 S"
b0 5
b0 s
1R
b100001000000000000000000000000000000011000000000000000000000000000000000000000000000000000000000000000000000000000000000000010100000100010001000001100101 8"
b11000 K
b100 )
b100 ,"
b100 1"
b100 I"
b0 D
b0 `"
b11010000000000000000000000000001001000000000000000000000000000000001000000000000000000000000000000000000100 &"
b100100 M
b100100 q
b10100 L
b10100 p
b10 V
b10 4"
b11010 #"
b11 ;
b1 1
b1 *"
b10000 C
b10000 !"
b100 `
b100 ~
b100 \"
b100 a"
b100000 J
b100000 D"
b10000001 @"
b0 9
b0 )"
b11 0
b11 ."
b11 Q"
b1000 _
b1000 L"
b11000010011000000100000 7
b11000010011000000100000 >"
b1110000000000011000010011000000100000 ;"
b11100 N
b11100 n
b11100 C"
b11000 O
b11000 o
b11000 ?"
b11000 P"
b1100000000000100000110010100000100010 ="
b110100111100000000000000000000000000010100000000000000000000000000000000000000000000000000000000000000000000000000000000000000000000000100000000010000000 :"
b1000000000000000000000000001000000000000000000000000000000000001000000000000000000000000000001000000001 ("
b10000000000000000000000000000000000000000000000000000000000000100000011 B"
b111 #
1!
#70000
b100001000000000000000000000000000000011000000000000000000000000000000000000000000000000000000000000000100000000000000000000010100000100010001000001100101 8"
b1000 E
b1000 V"
0!
#75000
b100 I
b100 f
b100 _"
0'
b11111111111111111111111111111100 a
b11111111111111111111111111111100 h
b110 b
b110 g
b110 k
b100 /
b100 N"
b100 R"
b100 ]"
b100 b"
b101 2
b101 K"
b1 .
b1 /"
b1 ^"
b1000 T
b1000 e
b1000 H"
b1000 F
b1000 G"
b1000 d"
1W
1P
b10000 \
b10000 %"
b10000 B
b10000 ""
b0 -"
0?
0R
1S
b100010 j
b1010000010001000 <
b1010000010001000 r
b1010000010001000 X"
0c
b0 d
b0 i
1@
b1 0
b1 ."
b1 Q"
b100 _
b100 L"
b100 1
b100 *"
b0 C
b0 !"
b100100 J
b100100 D"
b11000000000000000000000000000100000000000000000000000000000000010000100 @"
b11 9
b11 )"
b101 3
b101 J"
b11 )
b11 ,"
b11 1"
b11 I"
b100 ,
b100 +"
b10100000100010 =
b10100000100010 F"
b10100000100010 W"
b1000 D
b1000 `"
b10000000000000000000010100000101000000111111111111111111111111111111000000000000000000000000000000100000101 &"
b1010000010100000 M
b1010000010100000 q
b11000 L
b11000 p
b0 V
b0 4"
b10000 #"
b10 ;
b10000001 B"
b11010000000000000000000000000001001000000000000000000000000000000001000000000000000000000000000000000000100 ("
b100001000000000000000000000000000000011000000000000000000000000000000000000000000000000000000000000000100000000000000000000010100000100010001000001100101 :"
b1000 #
1!
#80000
0!
#85000
b10000000000000000000010100000101000000000000000000000000000000000010000000000000000000000000000000100000101 &"
b1000 a
b1000 h
b10000 I
b10000 f
b10000 _"
b10 .
b10 /"
b10 ^"
b10000 /
b10000 N"
b10000 R"
b10000 ]"
b10000 b"
b100000 6
b100000 E"
b100000 O"
b11000000100000 >
b11000000100000 Z"
b100000 8
b11000000100000 Y"
b110 4
b10000 E
b10000 V"
b1 *
b1 3"
b1 U"
b1000 H
b1000 T"
b11 -
b11 2"
b11 S"
b0 B
b0 ""
0S
1Q
b11 -"
1?
b100001000000000000000000000000000000011100000000000000000000000000000010000000000000000000000000000001000000000000000000000011000000100000000110000100110 8"
b11100 K
b101 1
b101 *"
b1000 C
b1000 !"
b11111111111111111111111111111100 `
b11111111111111111111111111111100 ~
b11111111111111111111111111111100 \"
b11111111111111111111111111111100 a"
b1010000010100000 J
b1010000010100000 D"
b10000000000000000000000000000000001111111111111111111111111111110000101 @"
b10 9
b10 )"
b100 0
b100 ."
b100 Q"
b10000 A
b10000 M"
b100000001001110000000000001010 7
b100000001001110000000000001010 >"
b10000000100000001001110000000000001010 ;"
b100000 N
b100000 n
b100000 C"
b11100 O
b11100 o
b11100 ?"
b11100 P"
b1110000000000011000010011000000100000 ="
b10000000000000000000010100000101000000111111111111111111111111111111000000000000000000000000000000100000101 ("
b11000000000000000000000000000100000000000000000000000000000000010000100 B"
b1001 #
1!
#90000
0!
#95000
b11000 a
b11000 h
b1000000101 Z
b1000000101 7"
b1000 I
b1000 f
b1000 _"
b10000 T
b10000 e
b10000 H"
b10 b
b10 g
b10 k
0{
b1000000101 5"
b101 [
1t
b10 u
b11111111111111111111111111111100 /
b11111111111111111111111111111100 N"
b11111111111111111111111111111100 R"
b11111111111111111111111111111100 ]"
b11111111111111111111111111111100 b"
b110 2
b110 K"
b0 .
b0 /"
b0 ^"
b10000 F
b10000 G"
b10000 d"
b100100 6
b100100 E"
b100100 O"
b1010 >
b1010 Z"
b10 -"
0Q
b100000 j
b1100000010000000 <
b1100000010000000 r
b1100000010000000 X"
b1010 8
b1010 Y"
b0 4
b0 E
b0 V"
b111 *
b111 3"
b111 U"
b10000 H
b10000 T"
b1 -
b1 2"
b1 S"
b1000 5
b1000 s
b101 0
b101 ."
b101 Q"
b11111111111111111111111111111100 _
b11111111111111111111111111111100 L"
b0 A
b0 M"
b10000000000000000000000000000000000000000000000000000000000000100000101 @"
b1000 `
b1000 ~
b1000 \"
b1000 a"
b110 3
b110 J"
b1 )
b1 ,"
b1 1"
b1 I"
b11 ,
b11 +"
b11000000100000 =
b11000000100000 F"
b11000000100000 W"
b10000 D
b10000 `"
b1000 G
b1000 ["
b10000000000000000000011000000100111000000000000000000000000000000110000000000000000000000000000001000000110 &"
b1100000010011100 M
b1100000010011100 q
b11100 L
b11100 p
b100000010100000000000000000000000000100000000000000000000000000000000100000000000000000000000000000000000000000000000000000000000000001010000010011100000 8"
b100000 K
b10000000000000000000000000000000001111111111111111111111111111110000101 B"
b10000000000000000000010100000101000000000000000000000000000000000010000000000000000000000000000000100000101 ("
b100001000000000000000000000000000000011100000000000000000000000000000010000000000000000000000000000001000000000000000000000011000000100000000110000100110 :"
b10000000100000001001110000000000001010 ="
b111000110100000000100100 7
b111000110100000000100100 >"
b10010000000000111000110100000000100100 ;"
b100100 N
b100100 n
b100100 C"
b100000 O
b100000 o
b100000 ?"
b100000 P"
b1010 #
1!
#100000
0!
#105000
b1000010000 Z
b1000010000 7"
b11010 a
b11010 h
1{
b1000010000 5"
b10000 [
0t
b0 u
b111 2
b111 K"
b1010 T
b1010 e
b1010 H"
b10000 I
b10000 f
b10000 _"
b0 F
b0 G"
b0 d"
b1000 /
b1000 N"
b1000 R"
b1000 ]"
b1000 b"
b101000 6
b101000 E"
b101000 O"
b100000000100100 >
b100000000100100 Z"
b100100 8
b100000000100100 Y"
b1000 4
b1000 E
b1000 V"
b11 *
b11 3"
b11 U"
b0 H
b0 T"
b111 -
b111 2"
b111 S"
b0 5
b0 s
b1010 j
b101000 <
b101000 r
b101000 X"
1c
b10 d
b10 i
0@
b100001000000000000000000000000000000100100000000000000000000000000000000000000000000000000000000000000100000000000000000000100000000100100001110001101000 8"
b100100 K
b0 3
b0 J"
b111 )
b111 ,"
b111 1"
b111 I"
b1 ,
b1 +"
b1010 =
b1010 F"
b1010 W"
b0 D
b0 `"
b10000 G
b10000 ["
b10000000000000000000000000000010010000000000000000000000000000000110100000000000000000000000000000000000111 &"
b1001000 M
b1001000 q
b100000 L
b100000 p
b110 1
b110 *"
b10000 C
b10000 !"
b10000000000000000000000000000000000000000000000000000000000001100000110 @"
b11000 `
b11000 ~
b11000 \"
b11000 a"
b1100000010011100 J
b1100000010011100 D"
b1000 _
b1000 L"
b1000001110100100000101010 7
b1000001110100100000101010 >"
b10100000000001000001110100100000101010 ;"
b101000 N
b101000 n
b101000 C"
b100100 O
b100100 o
b100100 ?"
b100100 P"
b10010000000000111000110100000000100100 ="
b100000010100000000000000000000000000100000000000000000000000000000000100000000000000000000000000000000000000000000000000000000000000001010000010011100000 :"
b10000000000000000000011000000100111000000000000000000000000000000110000000000000000000000000000001000000110 ("
b10000000000000000000000000000000000000000000000000000000000000100000101 B"
b1011 #
1!
#110000
0!
