Lab_3/code/test.vcd
$date
	Sat May 22 04:14:30 2021
$end
$version
	Icarus Verilog
$end
$timescale
	1ps
$end
$scope module testbench $end
$var reg 1 ! Clk $end
$var reg 1 " Start $end
$scope module CPU $end
$var wire 1 # and_MUX $end
$var wire 1 ! clk_i $end
$var wire 1 " rst_i $end
$var wire 1 $ zero $end
$var wire 32 % to_jr [31:0] $end
$var wire 5 & to_jal [4:0] $end
$var wire 5 ' shamt [4:0] $end
$var wire 5 ( rt_addr [4:0] $end
$var wire 5 ) rs_addr [4:0] $end
$var wire 5 * rd_addr [4:0] $end
$var wire 6 + opcode [5:0] $end
$var wire 32 , next_PC [31:0] $end
$var wire 1 - jr $end
$var wire 1 . jal $end
$var wire 6 / funcode [5:0] $end
$var wire 32 0 WriteData_src [31:0] $end
$var wire 32 1 WriteData [31:0] $end
$var wire 32 2 Shift_Left_2 [31:0] $end
$var wire 32 3 S_Extend [31:0] $end
$var wire 1 4 RegWrite $end
$var wire 1 5 RegDst $end
$var wire 32 6 Readdata [31:0] $end
$var wire 32 7 RT_data [31:0] $end
$var wire 32 8 RS_data [31:0] $end
$var wire 32 9 PC_addr_4 [31:0] $end
$var wire 32 : PC_addr [31:0] $end
$var wire 1 ; MemWrite $end
$var wire 1 < MemToReg $end
$var wire 1 = MemRead $end
$var wire 5 > MUX_Reg [4:0] $end
$var wire 32 ? MUX_MUX [31:0] $end
$var wire 32 @ MUX_ALU [31:0] $end
$var wire 1 A Jump $end
$var wire 1 B Branch $end
$var wire 32 C Addr_MUX [31:0] $end
$var wire 32 D ALU_Result [31:0] $end
$var wire 1 E ALUSrc $end
$var wire 3 F ALUOp [2:0] $end
$var wire 4 G ALUCtrl [3:0] $end
$scope module AC $end
$var wire 6 H funct_i [5:0] $end
$var wire 3 I ALUOp_i [2:0] $end
$var reg 4 J ALUCtrl_o [3:0] $end
$var reg 1 - jr_i $end
$upscope $end
$scope module ALU $end
$var wire 4 K ctrl_i [3:0] $end
$var wire 1 $ zero_o $end
$var wire 32 L src2_i [31:0] $end
$var wire 32 M src1_i [31:0] $end
$var reg 32 N result_o [31:0] $end
$upscope $end
$scope module Adder1 $end
$var wire 32 O src2_i [31:0] $end
$var wire 32 P sum_o [31:0] $end
$var wire 32 Q src1_i [31:0] $end
$upscope $end
$scope module Adder2 $end
$var wire 32 R src2_i [31:0] $end
$var wire 32 S sum_o [31:0] $end
$var wire 32 T src1_i [31:0] $end
$upscope $end
$scope module Data_Memory $end
$var wire 32 U addr_i [31:0] $end
$var wire 1 ! clk_i $end
$var wire 32 V data_i [31:0] $end
$var wire 1 ; MemWrite_i $end
$var wire 1 = MemRead_i $end
$var reg 32 W data_o [31:0] $end
$var integer 32 X i [31:0] $end
$upscope $end
$scope module Decoder $end
$var wire 6 Y instr_op_i [5:0] $end
$var reg 1 E ALUSrc_o $end
$var reg 3 Z ALU_op_o [2:0] $end
$var reg 1 B Branch_o $end
$var reg 1 A Jump_o $end
$var reg 1 = MemRead_o $end
$var reg 1 ; MemWrite_o $end
$var reg 1 < MemtoReg_o $end
$var reg 1 5 RegDst_o $end
$var reg 1 4 RegWrite_o $end
$var reg 1 . jal_o $end
$upscope $end
$scope module IM $end
$var wire 32 [ pc_addr_i [31:0] $end
$var reg 32 \ instr_o [31:0] $end
$var integer 32 ] i [31:0] $end
$upscope $end
$scope module MUX_MUX_MUX $end
$var wire 32 ^ data0_i [31:0] $end
$var wire 32 _ data1_i [31:0] $end
$var wire 1 # select_i $end
$var reg 32 ` data_o [31:0] $end
$upscope $end
$scope module MUX_WriteData $end
$var wire 32 a data1_i [31:0] $end
$var wire 1 . select_i $end
$var wire 32 b data0_i [31:0] $end
$var reg 32 c data_o [31:0] $end
$upscope $end
$scope module MUX_WriteData_src $end
$var wire 32 d data0_i [31:0] $end
$var wire 32 e data1_i [31:0] $end
$var wire 1 < select_i $end
$var reg 32 f data_o [31:0] $end
$upscope $end
$scope module MUX_to_jr $end
$var wire 32 g data0_i [31:0] $end
$var wire 32 h data1_i [31:0] $end
$var wire 1 A select_i $end
$var reg 32 i data_o [31:0] $end
$upscope $end
$scope module MUXjal $end
$var wire 5 j data1_i [4:0] $end
$var wire 1 . select_i $end
$var wire 5 k data0_i [4:0] $end
$var reg 5 l data_o [4:0] $end
$upscope $end
$scope module Mux_ALUSrc $end
$var wire 1 E select_i $end
$var wire 32 m data1_i [31:0] $end
$var wire 32 n data0_i [31:0] $end
$var reg 32 o data_o [31:0] $end
$upscope $end
$scope module Mux_PC_Source $end
$var wire 32 p data0_i [31:0] $end
$var wire 1 - select_i $end
$var wire 32 q data1_i [31:0] $end
$var reg 32 r data_o [31:0] $end
$upscope $end
$scope module Mux_Write_Reg $end
$var wire 5 s data0_i [4:0] $end
$var wire 5 t data1_i [4:0] $end
$var wire 1 5 select_i $end
$var reg 5 u data_o [4:0] $end
$upscope $end
$scope module PC $end
$var wire 1 ! clk_i $end
$var wire 32 v pc_in_i [31:0] $end
$var wire 1 " rst_i $end
$var reg 32 w pc_out_o [31:0] $end
$upscope $end
$scope module Registers $end
$var wire 5 x RDaddr_i [4:0] $end
$var wire 32 y RDdata_i [31:0] $end
$var wire 5 z RSaddr_i [4:0] $end
$var wire 32 { RSdata_o [31:0] $end
$var wire 5 | RTaddr_i [4:0] $end
$var wire 32 } RTdata_o [31:0] $end
$var wire 1 4 RegWrite_i $end
$var wire 1 ! clk_i $end
$var wire 1 " rst_i $end
$upscope $end
$scope module SE $end
$var wire 16 ~ data_i [15:0] $end
$var reg 32 !" data_o [31:0] $end
$upscope $end
$scope module Shifter $end
$var wire 32 "" data_i [31:0] $end
$var wire 32 #" data_o [31:0] $end
$upscope $end
$upscope $end
$upscope $end
$enddefinitions $end
#0
$dumpvars
bx00 #"
bx ""
bx !"
bx ~
bx }
bx |
bx {
bx z
bx y
bx x
bx w
bx v
bx u
bx t
bx s
bx r
bx q
bx p
bx o
bx n
bx m
bx l
bx k
b11111 j
bx i
bx00 h
bx g
bx f
bx e
bx d
bx c
bx b
bx a
bx `
bx _
bx ^
b100000 ]
bx \
bx [
bx Z
bx Y
b10000000 X
bx W
bx V
bx U
bx00 T
bx S
bx R
bx Q
bx P
b100 O
bx N
bx M
bx L
bx K
bx J
bx I
bx H
bx G
bx F
xE
bx D
bx C
xB
xA
bx @
bx ?
bx >
x=
x<
x;
bx :
bx 9
bx 8
bx 7
bx 6
x5
x4
bx 3
bx00 2
bx 1
bx 0
bx /
x.
x-
bx ,
bx +
bx *
bx )
bx (
bx '
bx &
bx %
x$
x#
0"
0!
$end
#2000
b0 1
b0 c
b0 y
b100 ,
b100 r
b100 v
b0 >
b0 l
b0 x
b0 0
b0 b
b0 f
b100 %
b100 i
b100 p
0#
b100 ?
b100 `
b100 g
b0 @
b0 L
b0 o
0-
b0 &
b0 k
b0 u
1$
b0 D
b0 N
b0 U
b0 d
0.
0<
0;
0=
0A
0B
15
0E
b0 F
b0 I
b0 Z
14
b100 C
b100 S
b100 _
b0 2
b0 T
b0 #"
b0 3
b0 m
b0 !"
b0 ""
b0 /
b0 H
b0 '
b0 ~
b0 *
b0 t
b0 7
b0 V
b0 n
b0 }
b0 (
b0 s
b0 |
b0 8
b0 M
b0 q
b0 {
b0 )
b0 z
b0 +
b0 Y
b0 h
b0 \
b100 9
b100 P
b100 R
b100 ^
b100 a
b0 :
b0 Q
b0 [
b0 w
1!
#4000
0!
#5000
1"
#6000
b100 1
b100 c
b100 y
b100 0
b100 b
b100 f
b100 >
b100 l
b100 x
0$
b100 D
b100 N
b100 U
b100 d
b1000 ,
b1000 r
b1000 v
b100 &
b100 k
b100 u
b100 @
b100 L
b100 o
b10 G
b10 J
b10 K
b1000 %
b1000 i
b1000 p
05
1E
b10 F
b10 I
b10 Z
b1000 ?
b1000 `
b1000 g
b10000 2
b10000 T
b10000 #"
b100 3
b100 m
b100 !"
b100 ""
b100 ~
b100 /
b100 H
b100000000000000010000 h
b100 (
b100 s
b100 |
b1000 +
b1000 Y
b100000000001000000000000000100 \
b11000 C
b11000 S
b11000 _
b1000 9
b1000 P
b1000 R
b1000 ^
b1000 a
b100 :
b100 Q
b100 [
b100 w
1!
#8000
0!
#10000
b1 1
b1 c
b1 y
b1 0
b1 b
b1 f
b1100 ,
b1100 r
b1100 v
b1 D
b1 N
b1 U
b1 d
b1001 >
b1001 l
b1001 x
b1100 %
b1100 i
b1100 p
b1 @
b1 L
b1 o
b1001 &
b1001 k
b1001 u
b1100 ?
b1100 `
b1100 g
b100 2
b100 T
b100 #"
b1 3
b1 m
b1 !"
b1 ""
b1 ~
b1 /
b1 H
b1001000000000000000100 h
b1001 (
b1001 s
b1001 |
b100000000010010000000000000001 \
b10000 C
b10000 S
b10000 _
b1100 9
b1100 P
b1100 R
b1100 ^
b1100 a
b1000 :
b1000 Q
b1000 [
b1000 w
b0 7
b0 V
b0 n
b0 }
1!
#12000
0!
#14000
b0 0
b0 b
b0 f
1$
b10100 ,
b10100 r
b10100 v
b0 D
b0 N
b0 U
b0 d
b10000 1
b10000 c
b10000 y
b11111 >
b11111 l
b11111 x
b110 G
b110 J
b110 K
b10100 %
b10100 i
b10100 p
b0 @
b0 L
b0 o
b0 &
b0 k
b0 u
1.
1A
0E
b100 F
b100 I
b100 Z
b10000 ?
b10000 `
b10000 g
b10100 2
b10100 T
b10100 #"
b101 3
b101 m
b101 !"
b101 ""
b101 ~
b101 /
b101 H
b10100 h
b0 (
b0 s
b0 |
b11 +
b11 Y
b1100000000000000000000000101 \
b100100 C
b100100 S
b100100 _
b10000 9
b10000 P
b10000 R
b10000 ^
b10000 a
b1100 :
b1100 Q
b1100 [
b1100 w
b0 7
b0 V
b0 n
b0 }
1!
#16000
0!
#18000
b11000 ,
b11000 r
b11000 v
b1110100 0
b1110100 b
b1110100 f
b11101 >
b11101 l
b11101 x
b10 G
b10 J
b10 K
b11101 &
b11101 k
b11101 u
b11111111111111111111111111110100 @
b11111111111111111111111111110100 L
b11111111111111111111111111110100 o
b11000 %
b11000 i
b11000 p
0$
b1110100 D
b1110100 N
b1110100 U
b1110100 d
0.
0A
1E
b10 F
b10 I
b10 Z
b11000 ?
b11000 `
b11000 g
b1110100 1
b1110100 c
b1110100 y
b11111111111111111111111111010000 2
b11111111111111111111111111010000 T
b11111111111111111111111111010000 #"
b11111111111111111111111111110100 3
b11111111111111111111111111110100 m
b11111111111111111111111111110100 !"
b11111111111111111111111111110100 ""
b110100 /
b110100 H
b11111 '
b1111111111110100 ~
b11111 *
b11111 t
b10000000 7
b10000000 V
b10000000 n
b10000000 }
b11101 (
b11101 s
b11101 |
b1110111101111111111111010000 h
b10000000 8
b10000000 M
b10000000 q
b10000000 {
b11101 )
b11101 z
b1000 +
b1000 Y
b100011101111011111111111110100 \
b11111111111111111111111111101000 C
b11111111111111111111111111101000 S
b11111111111111111111111111101000 _
b11000 9
b11000 P
b11000 R
b11000 ^
b11000 a
b10100 :
b10100 Q
b10100 [
b10100 w
1!
#20000
0!
#22000
b11100 ,
b11100 r
b11100 v
b1110100 1
b1110100 c
b1110100 y
b11111 >
b11111 l
b11111 x
b11100 %
b11100 i
b11100 p
b1110100 0
b1110100 b
b1110100 f
b0 @
b0 L
b0 o
b11111 &
b11111 k
b11111 u
1;
b111 F
b111 I
b111 Z
04
b11100 ?
b11100 `
b11100 g
b1110100 D
b1110100 N
b1110100 U
b1110100 d
b0 2
b0 T
b0 #"
b0 3
b0 m
b0 !"
b0 ""
b0 /
b0 H
b0 '
b0 ~
b0 *
b0 t
b1110111111000000000000000000 h
b11111 (
b11111 s
b11111 |
b101011 +
b101011 Y
b10101111101111110000000000000000 \
b11100 C
b11100 S
b11100 _
b11100 9
b11100 P
b11100 R
b11100 ^
b11100 a
b11000 :
b11000 Q
b11000 [
b11000 w
b1110100 8
b1110100 M
b1110100 q
b1110100 {
b10000 7
b10000 V
b10000 n
b10000 }
1!
#24000
0!
#26000
b1111000 1
b1111000 c
b1111000 y
b1111000 0
b1111000 b
b1111000 f
b100000 ,
b100000 r
b100000 v
b1111000 D
b1111000 N
b1111000 U
b1111000 d
b10000 >
b10000 l
b10000 x
b100000 %
b100000 i
b100000 p
b100 @
b100 L
b100 o
b10000 &
b10000 k
b10000 u
b100000 ?
b100000 `
b100000 g
b10000 2
b10000 T
b10000 #"
b100 3
b100 m
b100 !"
b100 ""
b100 ~
b100 /
b100 H
b1110110000000000000000010000 h
b0 7
b0 V
b0 n
b0 }
b10000 (
b10000 s
b10000 |
b10101111101100000000000000000100 \
b110000 C
b110000 S
b110000 _
b100000 9
b100000 P
b100000 R
b100000 ^
b100000 a
b11100 :
b11100 Q
b11100 [
b11100 w
1!
#28000
0!
#30000
b1111100 1
b1111100 c
b1111100 y
b1111100 0
b1111100 b
b1111100 f
b100100 ,
b100100 r
b100100 v
b1111100 D
b1111100 N
b1111100 U
b1111100 d
b10001 >
b10001 l
b10001 x
b100100 %
b100100 i
b100100 p
b1000 @
b1000 L
b1000 o
b10001 &
b10001 k
b10001 u
b100100 ?
b100100 `
b100100 g
b100000 2
b100000 T
b100000 #"
b1000 3
b1000 m
b1000 !"
b1000 ""
b1000 ~
b1000 /
b1000 H
b1110110001000000000000100000 h
b10001 (
b10001 s
b10001 |
b10101111101100010000000000001000 \
b1000100 C
b1000100 S
b1000100 _
b100100 9
b100100 P
b100100 R
b100100 ^
b100100 a
b100000 :
b100000 Q
b100000 [
b100000 w
1!
#32000
0!
#34000
b100 1
b100 c
b100 y
b101000 ,
b101000 r
b101000 v
b10000 >
b10000 l
b10000 x
b100 0
b100 b
b100 f
b101000 %
b101000 i
b101000 p
b0 @
b0 L
b0 o
b10000 &
b10000 k
b10000 u
b100 D
b100 N
b100 U
b100 d
0;
15
0E
b0 F
b0 I
b0 Z
14
b101000 ?
b101000 `
b101000 g
b11111111111111100000000010000000 2
b11111111111111100000000010000000 T
b11111111111111100000000010000000 #"
b11111111111111111000000000100000 3
b11111111111111111000000000100000 m
b11111111111111111000000000100000 !"
b11111111111111111000000000100000 ""
b100000 /
b100000 H
b1000000000100000 ~
b10000 *
b10000 t
b0 (
b0 s
b0 |
b10000000100000000010000000 h
b100 8
b100 M
b100 q
b100 {
b100 )
b100 z
b0 +
b0 Y
b100000001000000000100000 \
b11111111111111100000000010101000 C
b11111111111111100000000010101000 S
b11111111111111100000000010101000 _
b101000 9
b101000 P
b101000 R
b101000 ^
b101000 a
b100100 :
b100100 Q
b100100 [
b100100 w
1!
#36000
0!
#38000
b101100 ,
b101100 r
b101100 v
b0 >
b0 l
b0 x
b110 G
b110 J
b110 K
b101100 %
b101100 i
b101100 p
b0 &
b0 k
b0 u
1B
05
b100 F
b100 I
b100 Z
04
b101100 ?
b101100 `
b101100 g
b110000 2
b110000 T
b110000 #"
b1100 3
b1100 m
b1100 !"
b1100 ""
b1100 /
b1100 H
b1100 ~
b0 *
b0 t
b1000000000000000000000110000 h
b10000 )
b10000 z
b100 +
b100 Y
b10010000000000000000000001100 \
b1011100 C
b1011100 S
b1011100 _
b101100 9
b101100 P
b101100 R
b101100 ^
b101100 a
b101000 :
b101000 Q
b101000 [
b101000 w
1!
#40000
0!
#42000
b11 1
b11 c
b11 y
b11 0
b11 b
b11 f
b110000 ,
b110000 r
b110000 v
b1001 >
b1001 l
b1001 x
b11 D
b11 N
b11 U
b11 d
b110000 %
b110000 i
b110000 p
b1001 &
b1001 k
b1001 u
b1 @
b1 L
b1 o
b110000 ?
b110000 `
b110000 g
b101100 2
b101100 T
b101100 #"
b1011 3
b1011 m
b1011 !"
b1011 ""
b1011 ~
b1011 /
b1011 H
b1000001001000000000000101100 h
b1 7
b1 V
b1 n
b1 }
b1001 (
b1001 s
b1001 |
b10010000010010000000000001011 \
b1011100 C
b1011100 S
b1011100 _
b110000 9
b110000 P
b110000 R
b110000 ^
b110000 a
b101100 :
b101100 Q
b101100 [
b101100 w
1!
#44000
0!
#46000
b11 1
b11 c
b11 y
b11 0
b11 b
b11 f
b110100 ,
b110100 r
b110100 v
b100 >
b100 l
b100 x
0$
b11 D
b11 N
b11 U
b11 d
b10 G
b10 J
b10 K
b110100 %
b110100 i
b110100 p
b100 &
b100 k
b100 u
b11111111111111111111111111111111 @
b11111111111111111111111111111111 L
b11111111111111111111111111111111 o
0B
1E
b10 F
b10 I
b10 Z
14
b110100 ?
b110100 `
b110100 g
b11111111111111111111111111111100 2
b11111111111111111111111111111100 T
b11111111111111111111111111111100 #"
b11111111111111111111111111111111 3
b11111111111111111111111111111111 m
b11111111111111111111111111111111 !"
b11111111111111111111111111111111 ""
b111111 /
b111111 H
b11111 '
b1111111111111111 ~
b11111 *
b11111 t
b1000000100111111111111111100 h
b100 7
b100 V
b100 n
b100 }
b100 (
b100 s
b100 |
b1000 +
b1000 Y
b100010000001001111111111111111 \
b110000 C
b110000 S
b110000 _
b110100 9
b110100 P
b110100 R
b110100 ^
b110100 a
b110000 :
b110000 Q
b110000 [
b110000 w
1!
#48000
0!
#50000
1$
b10100 ,
b10100 r
b10100 v
b0 0
b0 b
b0 f
b111000 1
b111000 c
b111000 y
b11111 >
b11111 l
b11111 x
b110 G
b110 J
b110 K
b10100 %
b10100 i
b10100 p
b0 @
b0 L
b0 o
b0 &
b0 k
b0 u
b0 D
b0 N
b0 U
b0 d
1.
1A
0E
b100 F
b100 I
b100 Z
b111000 ?
b111000 `
b111000 g
b10100 2
b10100 T
b10100 #"
b101 3
b101 m
b101 !"
b101 ""
b101 /
b101 H
b0 '
b101 ~
b0 *
b0 t
b0 (
b0 s
b0 |
b10100 h
b0 8
b0 M
b0 q
b0 {
b0 )
b0 z
b11 +
b11 Y
b1100000000000000000000000101 \
b1001100 C
b1001100 S
b1001100 _
b111000 9
b111000 P
b111000 R
b111000 ^
b111000 a
b110100 :
b110100 Q
b110100 [
b110100 w
b0 7
b0 V
b0 n
b0 }
1!
#52000
0!
#54000
b11000 ,
b11000 r
b11000 v
b1101000 0
b1101000 b
b1101000 f
b11101 >
b11101 l
b11101 x
b10 G
b10 J
b10 K
b11101 &
b11101 k
b11101 u
b11111111111111111111111111110100 @
b11111111111111111111111111110100 L
b11111111111111111111111111110100 o
b11000 %
b11000 i
b11000 p
0$
b1101000 D
b1101000 N
b1101000 U
b1101000 d
0.
0A
1E
b10 F
b10 I
b10 Z
b11000 ?
b11000 `
b11000 g
b1101000 1
b1101000 c
b1101000 y
b11111111111111111111111111010000 2
b11111111111111111111111111010000 T
b11111111111111111111111111010000 #"
b11111111111111111111111111110100 3
b11111111111111111111111111110100 m
b11111111111111111111111111110100 !"
b11111111111111111111111111110100 ""
b110100 /
b110100 H
b11111 '
b1111111111110100 ~
b11111 *
b11111 t
b1110100 7
b1110100 V
b1110100 n
b1110100 }
b11101 (
b11101 s
b11101 |
b1110111101111111111111010000 h
b1110100 8
b1110100 M
b1110100 q
b1110100 {
b11101 )
b11101 z
b1000 +
b1000 Y
b100011101111011111111111110100 \
b11111111111111111111111111101000 C
b11111111111111111111111111101000 S
b11111111111111111111111111101000 _
b11000 9
b11000 P
b11000 R
b11000 ^
b11000 a
b10100 :
b10100 Q
b10100 [
b10100 w
1!
#56000
0!
#58000
b11100 ,
b11100 r
b11100 v
b1101000 1
b1101000 c
b1101000 y
b11111 >
b11111 l
b11111 x
b11100 %
b11100 i
b11100 p
b1101000 0
b1101000 b
b1101000 f
b0 @
b0 L
b0 o
b11111 &
b11111 k
b11111 u
1;
b111 F
b111 I
b111 Z
04
b11100 ?
b11100 `
b11100 g
b1101000 D
b1101000 N
b1101000 U
b1101000 d
b0 2
b0 T
b0 #"
b0 3
b0 m
b0 !"
b0 ""
b0 /
b0 H
b0 '
b0 ~
b0 *
b0 t
b1110111111000000000000000000 h
b11111 (
b11111 s
b11111 |
b101011 +
b101011 Y
b10101111101111110000000000000000 \
b11100 C
b11100 S
b11100 _
b11100 9
b11100 P
b11100 R
b11100 ^
b11100 a
b11000 :
b11000 Q
b11000 [
b11000 w
b1101000 8
b1101000 M
b1101000 q
b1101000 {
b111000 7
b111000 V
b111000 n
b111000 }
1!
#60000
0!
#62000
b1101100 1
b1101100 c
b1101100 y
b1101100 0
b1101100 b
b1101100 f
b100000 ,
b100000 r
b100000 v
b1101100 D
b1101100 N
b1101100 U
b1101100 d
b10000 >
b10000 l
b10000 x
b100000 %
b100000 i
b100000 p
b100 @
b100 L
b100 o
b10000 &
b10000 k
b10000 u
b100000 ?
b100000 `
b100000 g
b10000 2
b10000 T
b10000 #"
b100 3
b100 m
b100 !"
b100 ""
b100 ~
b100 /
b100 H
b1110110000000000000000010000 h
b100 7
b100 V
b100 n
b100 }
b10000 (
b10000 s
b10000 |
b10101111101100000000000000000100 \
b110000 C
b110000 S
b110000 _
b100000 9
b100000 P
b100000 R
b100000 ^
b100000 a
b11100 :
b11100 Q
b11100 [
b11100 w
1!
#64000
0!
#66000
b1110000 1
b1110000 c
b1110000 y
b1110000 0
b1110000 b
b1110000 f
b100100 ,
b100100 r
b100100 v
b1110000 D
b1110000 N
b1110000 U
b1110000 d
b10001 >
b10001 l
b10001 x
b100100 %
b100100 i
b100100 p
b1000 @
b1000 L
b1000 o
b10001 &
b10001 k
b10001 u
b100100 ?
b100100 `
b100100 g
b100000 2
b100000 T
b100000 #"
b1000 3
b1000 m
b1000 !"
b1000 ""
b1000 ~
b1000 /
b1000 H
b1110110001000000000000100000 h
b0 7
b0 V
b0 n
b0 }
b10001 (
b10001 s
b10001 |
b10101111101100010000000000001000 \
b1000100 C
b1000100 S
b1000100 _
b100100 9
b100100 P
b100100 R
b100100 ^
b100100 a
b100000 :
b100000 Q
b100000 [
b100000 w
1!
#68000
0!
#70000
b11 1
b11 c
b11 y
b101000 ,
b101000 r
b101000 v
b10000 >
b10000 l
b10000 x
b11 0
b11 b
b11 f
b101000 %
b101000 i
b101000 p
b0 @
b0 L
b0 o
b10000 &
b10000 k
b10000 u
b11 D
b11 N
b11 U
b11 d
0;
15
0E
b0 F
b0 I
b0 Z
14
b101000 ?
b101000 `
b101000 g
b11111111111111100000000010000000 2
b11111111111111100000000010000000 T
b11111111111111100000000010000000 #"
b11111111111111111000000000100000 3
b11111111111111111000000000100000 m
b11111111111111111000000000100000 !"
b11111111111111111000000000100000 ""
b100000 /
b100000 H
b1000000000100000 ~
b10000 *
b10000 t
b0 (
b0 s
b0 |
b10000000100000000010000000 h
b11 8
b11 M
b11 q
b11 {
b100 )
b100 z
b0 +
b0 Y
b100000001000000000100000 \
b11111111111111100000000010101000 C
b11111111111111100000000010101000 S
b11111111111111100000000010101000 _
b101000 9
b101000 P
b101000 R
b101000 ^
b101000 a
b100100 :
b100100 Q
b100100 [
b100100 w
1!
#72000
0!
#74000
b101100 ,
b101100 r
b101100 v
b0 >
b0 l
b0 x
b110 G
b110 J
b110 K
b101100 %
b101100 i
b101100 p
b0 &
b0 k
b0 u
1B
05
b100 F
b100 I
b100 Z
04
b101100 ?
b101100 `
b101100 g
b110000 2
b110000 T
b110000 #"
b1100 3
b1100 m
b1100 !"
b1100 ""
b1100 /
b1100 H
b1100 ~
b0 *
b0 t
b1000000000000000000000110000 h
b10000 )
b10000 z
b100 +
b100 Y
b10010000000000000000000001100 \
b1011100 C
b1011100 S
b1011100 _
b101100 9
b101100 P
b101100 R
b101100 ^
b101100 a
b101000 :
b101000 Q
b101000 [
b101000 w
1!
#76000
0!
#78000
b10 1
b10 c
b10 y
b10 0
b10 b
b10 f
b110000 ,
b110000 r
b110000 v
b1001 >
b1001 l
b1001 x
b10 D
b10 N
b10 U
b10 d
b110000 %
b110000 i
b110000 p
b1001 &
b1001 k
b1001 u
b1 @
b1 L
b1 o
b110000 ?
b110000 `
b110000 g
b101100 2
b101100 T
b101100 #"
b1011 3
b1011 m
b1011 !"
b1011 ""
b1011 ~
b1011 /
b1011 H
b1000001001000000000000101100 h
b1 7
b1 V
b1 n
b1 }
b1001 (
b1001 s
b1001 |
b10010000010010000000000001011 \
b1011100 C
b1011100 S
b1011100 _
b110000 9
b110000 P
b110000 R
b110000 ^
b110000 a
b101100 :
b101100 Q
b101100 [
b101100 w
1!
#80000
0!
#82000
b10 1
b10 c
b10 y
b10 0
b10 b
b10 f
b110100 ,
b110100 r
b110100 v
b100 >
b100 l
b100 x
0$
b10 D
b10 N
b10 U
b10 d
b10 G
b10 J
b10 K
b110100 %
b110100 i
b110100 p
b100 &
b100 k
b100 u
b11111111111111111111111111111111 @
b11111111111111111111111111111111 L
b11111111111111111111111111111111 o
0B
1E
b10 F
b10 I
b10 Z
14
b110100 ?
b110100 `
b110100 g
b11111111111111111111111111111100 2
b11111111111111111111111111111100 T
b11111111111111111111111111111100 #"
b11111111111111111111111111111111 3
b11111111111111111111111111111111 m
b11111111111111111111111111111111 !"
b11111111111111111111111111111111 ""
b111111 /
b111111 H
b11111 '
b1111111111111111 ~
b11111 *
b11111 t
b1000000100111111111111111100 h
b11 7
b11 V
b11 n
b11 }
b100 (
b100 s
b100 |
b1000 +
b1000 Y
b100010000001001111111111111111 \
b110000 C
b110000 S
b110000 _
b110100 9
b110100 P
b110100 R
b110100 ^
b110100 a
b110000 :
b110000 Q
b110000 [
b110000 w
1!
#84000
0!
#86000
1$
b10100 ,
b10100 r
b10100 v
b0 0
b0 b
b0 f
b111000 1
b111000 c
b111000 y
b11111 >
b11111 l
b11111 x
b110 G
b110 J
b110 K
b10100 %
b10100 i
b10100 p
b0 @
b0 L
b0 o
b0 &
b0 k
b0 u
b0 D
b0 N
b0 U
b0 d
1.
1A
0E
b100 F
b100 I
b100 Z
b111000 ?
b111000 `
b111000 g
b10100 2
b10100 T
b10100 #"
b101 3
b101 m
b101 !"
b101 ""
b101 /
b101 H
b0 '
b101 ~
b0 *
b0 t
b0 (
b0 s
b0 |
b10100 h
b0 8
b0 M
b0 q
b0 {
b0 )
b0 z
b11 +
b11 Y
b1100000000000000000000000101 \
b1001100 C
b1001100 S
b1001100 _
b111000 9
b111000 P
b111000 R
b111000 ^
b111000 a
b110100 :
b110100 Q
b110100 [
b110100 w
b0 7
b0 V
b0 n
b0 }
1!
#88000
0!
#90000
b11000 ,
b11000 r
b11000 v
b1011100 0
b1011100 b
b1011100 f
b11101 >
b11101 l
b11101 x
b10 G
b10 J
b10 K
b11101 &
b11101 k
b11101 u
b11111111111111111111111111110100 @
b11111111111111111111111111110100 L
b11111111111111111111111111110100 o
b11000 %
b11000 i
b11000 p
0$
b1011100 D
b1011100 N
b1011100 U
b1011100 d
0.
0A
1E
b10 F
b10 I
b10 Z
b11000 ?
b11000 `
b11000 g
b1011100 1
b1011100 c
b1011100 y
b11111111111111111111111111010000 2
b11111111111111111111111111010000 T
b11111111111111111111111111010000 #"
b11111111111111111111111111110100 3
b11111111111111111111111111110100 m
b11111111111111111111111111110100 !"
b11111111111111111111111111110100 ""
b110100 /
b110100 H
b11111 '
b1111111111110100 ~
b11111 *
b11111 t
b1101000 7
b1101000 V
b1101000 n
b1101000 }
b11101 (
b11101 s
b11101 |
b1110111101111111111111010000 h
b1101000 8
b1101000 M
b1101000 q
b1101000 {
b11101 )
b11101 z
b1000 +
b1000 Y
b100011101111011111111111110100 \
b11111111111111111111111111101000 C
b11111111111111111111111111101000 S
b11111111111111111111111111101000 _
b11000 9
b11000 P
b11000 R
b11000 ^
b11000 a
b10100 :
b10100 Q
b10100 [
b10100 w
1!
#92000
0!
#94000
b11100 ,
b11100 r
b11100 v
b1011100 1
b1011100 c
b1011100 y
b11111 >
b11111 l
b11111 x
b11100 %
b11100 i
b11100 p
b1011100 0
b1011100 b
b1011100 f
b0 @
b0 L
b0 o
b11111 &
b11111 k
b11111 u
1;
b111 F
b111 I
b111 Z
04
b11100 ?
b11100 `
b11100 g
b1011100 D
b1011100 N
b1011100 U
b1011100 d
b0 2
b0 T
b0 #"
b0 3
b0 m
b0 !"
b0 ""
b0 /
b0 H
b0 '
b0 ~
b0 *
b0 t
b1110111111000000000000000000 h
b11111 (
b11111 s
b11111 |
b101011 +
b101011 Y
b10101111101111110000000000000000 \
b11100 C
b11100 S
b11100 _
b11100 9
b11100 P
b11100 R
b11100 ^
b11100 a
b11000 :
b11000 Q
b11000 [
b11000 w
b1011100 8
b1011100 M
b1011100 q
b1011100 {
b111000 7
b111000 V
b111000 n
b111000 }
1!
#96000
0!
#98000
b1100000 1
b1100000 c
b1100000 y
b1100000 0
b1100000 b
b1100000 f
b100000 ,
b100000 r
b100000 v
b1100000 D
b1100000 N
b1100000 U
b1100000 d
b10000 >
b10000 l
b10000 x
b100000 %
b100000 i
b100000 p
b100 @
b100 L
b100 o
b10000 &
b10000 k
b10000 u
b100000 ?
b100000 `
b100000 g
b10000 2
b10000 T
b10000 #"
b100 3
b100 m
b100 !"
b100 ""
b100 ~
b100 /
b100 H
b1110110000000000000000010000 h
b11 7
b11 V
b11 n
b11 }
b10000 (
b10000 s
b10000 |
b10101111101100000000000000000100 \
b110000 C
b110000 S
b110000 _
b100000 9
b100000 P
b100000 R
b100000 ^
b100000 a
b11100 :
b11100 Q
b11100 [
b11100 w
1!
#100000
0!
